{
	"ModelDataPath": "modeldata.txt",
	"Name": "New model",
	"Description": "example description",
	"ThumbnailPath": "thumbnail",
	"RobloxPlacePath": "Place",
	"PasteLink": null,
	"PermamentLink": false
}
